{
  "name": "Category",
  "ontostep_name": "owl:Thing",
  "node": [
    {
			"name": "Bill of material",
			"ontostep_name": "Representation_item"
		},
		{
			"name": "GD&T",
			"ontostep_name": "GD&T_representation"
		},
		{
			"name": "Manufacturing features",
			"ontostep_name": "manufacturing_feature"
		},
		{
			"name": "Kinematics",
			"ontostep_name": "Kinematic"
		},
		{
			"name": "Product version",
			"ontostep_name": "Product_version"
		},
		{
			"name": "Material specification",
			"ontostep_name": "Material_specification"
		},
		{
			"name": "Model based 3D annotation",
			"ontostep_name": "Model_based_3D_annotation"
		},
		{
			"name": "Extended features",
			"ontostep_name": "AMS_tourelle"
		}
  ]
}